%YAML 1.1
%TAG !u! tag:unity3d.com,2011:
--- !u!114 &11400000
MonoBehaviour:
  m_ObjectHideFlags: 0
  m_CorrespondingSourceObject: {fileID: 0}
  m_PrefabInstance: {fileID: 0}
  m_PrefabAsset: {fileID: 0}
  m_GameObject: {fileID: 0}
  m_Enabled: 1
  m_EditorHideFlags: 0
  m_Script: {fileID: 11500000, guid: 86edd47f80034457b8266d433c938eb8, type: 3}
  m_Name: Charm Menu Buttons
  m_EditorClassIdentifier: Assembly-CSharp::ResourceButtonsSO
  Name: Charm Menu Buttons
  ButtonPrefab: {fileID: 8067789354171148844, guid: d959ad52f648b4a7ebe223a812ad1cfc,
    type: 3}
  ResourceButtons:
  - ButtonText: Back
    resourceToGain:
      type: 0
      amount: 0
      max: 0
    resourceToLose:
      type: 0
      amount: 0
      max: 0
    buttonType: 5
