%YAML 1.1
%TAG !u! tag:unity3d.com,2011:
--- !u!74 &7400000
AnimationClip:
  m_ObjectHideFlags: 0
  m_CorrespondingSourceObject: {fileID: 0}
  m_PrefabInstance: {fileID: 0}
  m_PrefabAsset: {fileID: 0}
  m_Name: BoltHit
  serializedVersion: 6
  m_Legacy: 0
  m_Compressed: 0
  m_UseHighQualityCurve: 1
  m_RotationCurves: []
  m_CompressedRotationCurves: []
  m_EulerCurves: []
  m_PositionCurves: []
  m_ScaleCurves: []
  m_FloatCurves: []
  m_PPtrCurves:
  - curve:
    - time: 0
      value: {fileID: 21300000, guid: b325dacd9f5e14766ab0bd392e94b736, type: 3}
    - time: 0.083333336
      value: {fileID: 21300000, guid: ed1cd027c82e246a4b9e972ce4082912, type: 3}
    - time: 0.16666667
      value: {fileID: 21300000, guid: a69d3db595a574dc2a70e0b21c50752a, type: 3}
    - time: 0.25
      value: {fileID: 21300000, guid: ef87d31586d8d41f9a128ba4a7096cbe, type: 3}
    - time: 0.33333334
      value: {fileID: 21300000, guid: 1f11c80b61d65493a854270a50c5622f, type: 3}
    - time: 0.41666666
      value: {fileID: 21300000, guid: 1347a2ca3f948480b9dfb700a106f968, type: 3}
    - time: 0.5
      value: {fileID: 21300000, guid: e9c99c1282c854182b4a10e1cbc9449c, type: 3}
    - time: 0.5833333
      value: {fileID: 21300000, guid: c5980ef0207a44626a23451b9d8b3046, type: 3}
    - time: 0.6666667
      value: {fileID: 21300000, guid: 136ed181dba254c82995420f0b94b4c5, type: 3}
    - time: 0.75
      value: {fileID: 21300000, guid: b8216be4cda7e48bc8415610a21b111c, type: 3}
    - time: 0.8333333
      value: {fileID: 21300000, guid: c014aeac856184851959b4f0d576503d, type: 3}
    - time: 0.9166667
      value: {fileID: 21300000, guid: 066db761574ee43ecb6f16113d41a7f5, type: 3}
    - time: 1
      value: {fileID: 21300000, guid: 73287128b2996474cae7b49cc07f23ea, type: 3}
    - time: 1.0833334
      value: {fileID: 21300000, guid: ff54f1b0f94c342b095b3051fd5b6100, type: 3}
    - time: 1.1666666
      value: {fileID: 0}
    attribute: m_Sprite
    path: 
    classID: 212
    script: {fileID: 0}
  m_SampleRate: 12
  m_WrapMode: 0
  m_Bounds:
    m_Center: {x: 0, y: 0, z: 0}
    m_Extent: {x: 0, y: 0, z: 0}
  m_ClipBindingConstant:
    genericBindings:
    - serializedVersion: 2
      path: 0
      attribute: 0
      script: {fileID: 0}
      typeID: 212
      customType: 23
      isPPtrCurve: 1
    pptrCurveMapping:
    - {fileID: 21300000, guid: b325dacd9f5e14766ab0bd392e94b736, type: 3}
    - {fileID: 21300000, guid: ed1cd027c82e246a4b9e972ce4082912, type: 3}
    - {fileID: 21300000, guid: a69d3db595a574dc2a70e0b21c50752a, type: 3}
    - {fileID: 21300000, guid: ef87d31586d8d41f9a128ba4a7096cbe, type: 3}
    - {fileID: 21300000, guid: 1f11c80b61d65493a854270a50c5622f, type: 3}
    - {fileID: 21300000, guid: 1347a2ca3f948480b9dfb700a106f968, type: 3}
    - {fileID: 21300000, guid: e9c99c1282c854182b4a10e1cbc9449c, type: 3}
    - {fileID: 21300000, guid: c5980ef0207a44626a23451b9d8b3046, type: 3}
    - {fileID: 21300000, guid: 136ed181dba254c82995420f0b94b4c5, type: 3}
    - {fileID: 21300000, guid: b8216be4cda7e48bc8415610a21b111c, type: 3}
    - {fileID: 21300000, guid: c014aeac856184851959b4f0d576503d, type: 3}
    - {fileID: 21300000, guid: 066db761574ee43ecb6f16113d41a7f5, type: 3}
    - {fileID: 21300000, guid: 73287128b2996474cae7b49cc07f23ea, type: 3}
    - {fileID: 21300000, guid: ff54f1b0f94c342b095b3051fd5b6100, type: 3}
    - {fileID: 0}
  m_AnimationClipSettings:
    serializedVersion: 2
    m_AdditiveReferencePoseClip: {fileID: 0}
    m_AdditiveReferencePoseTime: 0
    m_StartTime: 0
    m_StopTime: 1.25
    m_OrientationOffsetY: 0
    m_Level: 0
    m_CycleOffset: 0
    m_HasAdditiveReferencePose: 0
    m_LoopTime: 0
    m_LoopBlend: 0
    m_LoopBlendOrientation: 0
    m_LoopBlendPositionY: 0
    m_LoopBlendPositionXZ: 0
    m_KeepOriginalOrientation: 0
    m_KeepOriginalPositionY: 1
    m_KeepOriginalPositionXZ: 0
    m_HeightFromFeet: 0
    m_Mirror: 0
  m_EditorCurves: []
  m_EulerEditorCurves: []
  m_HasGenericRootTransform: 0
  m_HasMotionFloatCurves: 0
  m_Events: []
