%YAML 1.1
%TAG !u! tag:unity3d.com,2011:
--- !u!74 &7400000
AnimationClip:
  m_ObjectHideFlags: 0
  m_CorrespondingSourceObject: {fileID: 0}
  m_PrefabInstance: {fileID: 0}
  m_PrefabAsset: {fileID: 0}
  m_Name: Attack1_B
  serializedVersion: 6
  m_Legacy: 0
  m_Compressed: 0
  m_UseHighQualityCurve: 1
  m_RotationCurves: []
  m_CompressedRotationCurves: []
  m_EulerCurves: []
  m_PositionCurves: []
  m_ScaleCurves: []
  m_FloatCurves: []
  m_PPtrCurves:
  - curve:
    - time: 0
      value: {fileID: 21300000, guid: 3c21e05f2a7784337b384c1cb0fed063, type: 3}
    - time: 0.083333336
      value: {fileID: 21300000, guid: e28c9b130f2784b20b2d6e0887c67ae2, type: 3}
    - time: 0.16666667
      value: {fileID: 21300000, guid: 8219a0736eef54913acdf23438db2ceb, type: 3}
    - time: 0.25
      value: {fileID: 21300000, guid: 35297998b68944507848e0d4988706a7, type: 3}
    - time: 0.33333334
      value: {fileID: 21300000, guid: b73fcbdcbfef146deb65b9edd5e00a06, type: 3}
    - time: 0.41666666
      value: {fileID: 21300000, guid: 9cb87ddbcb9ad4cc78c3fa27cead0c1d, type: 3}
    attribute: m_Sprite
    path: Animation/Scale/Sprite
    classID: 212
    script: {fileID: 0}
  m_SampleRate: 12
  m_WrapMode: 0
  m_Bounds:
    m_Center: {x: 0, y: 0, z: 0}
    m_Extent: {x: 0, y: 0, z: 0}
  m_ClipBindingConstant:
    genericBindings:
    - serializedVersion: 2
      path: 1417411149
      attribute: 0
      script: {fileID: 0}
      typeID: 212
      customType: 23
      isPPtrCurve: 1
    pptrCurveMapping:
    - {fileID: 21300000, guid: 3c21e05f2a7784337b384c1cb0fed063, type: 3}
    - {fileID: 21300000, guid: e28c9b130f2784b20b2d6e0887c67ae2, type: 3}
    - {fileID: 21300000, guid: 8219a0736eef54913acdf23438db2ceb, type: 3}
    - {fileID: 21300000, guid: 35297998b68944507848e0d4988706a7, type: 3}
    - {fileID: 21300000, guid: b73fcbdcbfef146deb65b9edd5e00a06, type: 3}
    - {fileID: 21300000, guid: 9cb87ddbcb9ad4cc78c3fa27cead0c1d, type: 3}
  m_AnimationClipSettings:
    serializedVersion: 2
    m_AdditiveReferencePoseClip: {fileID: 0}
    m_AdditiveReferencePoseTime: 0
    m_StartTime: 0
    m_StopTime: 0.5
    m_OrientationOffsetY: 0
    m_Level: 0
    m_CycleOffset: 0
    m_HasAdditiveReferencePose: 0
    m_LoopTime: 0
    m_LoopBlend: 0
    m_LoopBlendOrientation: 0
    m_LoopBlendPositionY: 0
    m_LoopBlendPositionXZ: 0
    m_KeepOriginalOrientation: 0
    m_KeepOriginalPositionY: 1
    m_KeepOriginalPositionXZ: 0
    m_HeightFromFeet: 0
    m_Mirror: 0
  m_EditorCurves: []
  m_EulerEditorCurves: []
  m_HasGenericRootTransform: 0
  m_HasMotionFloatCurves: 0
  m_Events:
  - time: 0.16666667
    functionName: AttackHit
    data: 
    objectReferenceParameter: {fileID: 0}
    floatParameter: 0
    intParameter: 0
    messageOptions: 0
