%YAML 1.1
%TAG !u! tag:unity3d.com,2011:
--- !u!74 &7400000
AnimationClip:
  m_ObjectHideFlags: 0
  m_CorrespondingSourceObject: {fileID: 0}
  m_PrefabInstance: {fileID: 0}
  m_PrefabAsset: {fileID: 0}
  m_Name: WitchballExplosion
  serializedVersion: 6
  m_Legacy: 0
  m_Compressed: 0
  m_UseHighQualityCurve: 1
  m_RotationCurves: []
  m_CompressedRotationCurves: []
  m_EulerCurves: []
  m_PositionCurves: []
  m_ScaleCurves: []
  m_FloatCurves: []
  m_PPtrCurves:
  - curve:
    - time: 0
      value: {fileID: 21300000, guid: e79b1a66425704d99a9dce0c86491763, type: 3}
    - time: 0.083333336
      value: {fileID: 21300000, guid: 51e4e0dbcb7d64148b5468858147491d, type: 3}
    - time: 0.16666667
      value: {fileID: 21300000, guid: 187df1b4fd1324c9389e432e62e85004, type: 3}
    - time: 0.25
      value: {fileID: 21300000, guid: 5612b3a4ad28a41b897e21156c105ed7, type: 3}
    - time: 0.33333334
      value: {fileID: 21300000, guid: 0e1bfd6b8a4b44b43976b9eb3e910e7d, type: 3}
    - time: 0.41666666
      value: {fileID: 21300000, guid: 9ea5f95e575dd4a4e9162b30600b5fce, type: 3}
    - time: 0.5
      value: {fileID: 21300000, guid: 5977941eb5df04d7ba4c51eb3462c94f, type: 3}
    - time: 0.5833333
      value: {fileID: 21300000, guid: 678bd2bf6af55472e913ec3f846984e8, type: 3}
    - time: 0.6666667
      value: {fileID: 21300000, guid: 13adc21f4d9c54fe39ac25e3ddcc2ee5, type: 3}
    - time: 0.75
      value: {fileID: 0}
    attribute: m_Sprite
    path: 
    classID: 212
    script: {fileID: 0}
  m_SampleRate: 12
  m_WrapMode: 0
  m_Bounds:
    m_Center: {x: 0, y: 0, z: 0}
    m_Extent: {x: 0, y: 0, z: 0}
  m_ClipBindingConstant:
    genericBindings:
    - serializedVersion: 2
      path: 0
      attribute: 0
      script: {fileID: 0}
      typeID: 212
      customType: 23
      isPPtrCurve: 1
    pptrCurveMapping:
    - {fileID: 21300000, guid: e79b1a66425704d99a9dce0c86491763, type: 3}
    - {fileID: 21300000, guid: 51e4e0dbcb7d64148b5468858147491d, type: 3}
    - {fileID: 21300000, guid: 187df1b4fd1324c9389e432e62e85004, type: 3}
    - {fileID: 21300000, guid: 5612b3a4ad28a41b897e21156c105ed7, type: 3}
    - {fileID: 21300000, guid: 0e1bfd6b8a4b44b43976b9eb3e910e7d, type: 3}
    - {fileID: 21300000, guid: 9ea5f95e575dd4a4e9162b30600b5fce, type: 3}
    - {fileID: 21300000, guid: 5977941eb5df04d7ba4c51eb3462c94f, type: 3}
    - {fileID: 21300000, guid: 678bd2bf6af55472e913ec3f846984e8, type: 3}
    - {fileID: 21300000, guid: 13adc21f4d9c54fe39ac25e3ddcc2ee5, type: 3}
    - {fileID: 0}
  m_AnimationClipSettings:
    serializedVersion: 2
    m_AdditiveReferencePoseClip: {fileID: 0}
    m_AdditiveReferencePoseTime: 0
    m_StartTime: 0
    m_StopTime: 0.8333333
    m_OrientationOffsetY: 0
    m_Level: 0
    m_CycleOffset: 0
    m_HasAdditiveReferencePose: 0
    m_LoopTime: 0
    m_LoopBlend: 0
    m_LoopBlendOrientation: 0
    m_LoopBlendPositionY: 0
    m_LoopBlendPositionXZ: 0
    m_KeepOriginalOrientation: 0
    m_KeepOriginalPositionY: 1
    m_KeepOriginalPositionXZ: 0
    m_HeightFromFeet: 0
    m_Mirror: 0
  m_EditorCurves: []
  m_EulerEditorCurves: []
  m_HasGenericRootTransform: 0
  m_HasMotionFloatCurves: 0
  m_Events: []
