%YAML 1.1
%TAG !u! tag:unity3d.com,2011:
--- !u!74 &7400000
AnimationClip:
  m_ObjectHideFlags: 0
  m_CorrespondingSourceObject: {fileID: 0}
  m_PrefabInstance: {fileID: 0}
  m_PrefabAsset: {fileID: 0}
  m_Name: Cheer
  serializedVersion: 6
  m_Legacy: 0
  m_Compressed: 0
  m_UseHighQualityCurve: 1
  m_RotationCurves: []
  m_CompressedRotationCurves: []
  m_EulerCurves: []
  m_PositionCurves: []
  m_ScaleCurves: []
  m_FloatCurves: []
  m_PPtrCurves:
  - curve:
    - time: 0
      value: {fileID: 21300000, guid: 9657dab5c59fa43ffb40f2c676808a99, type: 3}
    - time: 0.083333336
      value: {fileID: 21300000, guid: 9f31e0cfb86724ef69ed059b9c29dfe6, type: 3}
    - time: 0.16666667
      value: {fileID: 21300000, guid: 98968ee22ea074fa88c29f5b8af05511, type: 3}
    - time: 0.25
      value: {fileID: 21300000, guid: e0dfeac1c993f4076b1a5346244976d2, type: 3}
    - time: 0.33333334
      value: {fileID: 21300000, guid: 1bffc910d63074eae801149c78a2dce7, type: 3}
    - time: 0.41666666
      value: {fileID: 21300000, guid: 1a686af80a62c4885b215f99c42487f3, type: 3}
    - time: 0.5
      value: {fileID: 21300000, guid: 8bab80df1788340f4847c7de0128816b, type: 3}
    - time: 0.5833333
      value: {fileID: 21300000, guid: d3e682e13984e4841b70c912ffe0c3be, type: 3}
    - time: 0.6666667
      value: {fileID: 21300000, guid: c20d07389968746d1840acaf8cc700d3, type: 3}
    attribute: m_Sprite
    path: Animation/Scale/Sprite
    classID: 212
    script: {fileID: 0}
  m_SampleRate: 12
  m_WrapMode: 0
  m_Bounds:
    m_Center: {x: 0, y: 0, z: 0}
    m_Extent: {x: 0, y: 0, z: 0}
  m_ClipBindingConstant:
    genericBindings:
    - serializedVersion: 2
      path: 1417411149
      attribute: 0
      script: {fileID: 0}
      typeID: 212
      customType: 23
      isPPtrCurve: 1
    pptrCurveMapping:
    - {fileID: 21300000, guid: 9657dab5c59fa43ffb40f2c676808a99, type: 3}
    - {fileID: 21300000, guid: 9f31e0cfb86724ef69ed059b9c29dfe6, type: 3}
    - {fileID: 21300000, guid: 98968ee22ea074fa88c29f5b8af05511, type: 3}
    - {fileID: 21300000, guid: e0dfeac1c993f4076b1a5346244976d2, type: 3}
    - {fileID: 21300000, guid: 1bffc910d63074eae801149c78a2dce7, type: 3}
    - {fileID: 21300000, guid: 1a686af80a62c4885b215f99c42487f3, type: 3}
    - {fileID: 21300000, guid: 8bab80df1788340f4847c7de0128816b, type: 3}
    - {fileID: 21300000, guid: d3e682e13984e4841b70c912ffe0c3be, type: 3}
    - {fileID: 21300000, guid: c20d07389968746d1840acaf8cc700d3, type: 3}
  m_AnimationClipSettings:
    serializedVersion: 2
    m_AdditiveReferencePoseClip: {fileID: 0}
    m_AdditiveReferencePoseTime: 0
    m_StartTime: 0
    m_StopTime: 0.75
    m_OrientationOffsetY: 0
    m_Level: 0
    m_CycleOffset: 0
    m_HasAdditiveReferencePose: 0
    m_LoopTime: 1
    m_LoopBlend: 0
    m_LoopBlendOrientation: 0
    m_LoopBlendPositionY: 0
    m_LoopBlendPositionXZ: 0
    m_KeepOriginalOrientation: 0
    m_KeepOriginalPositionY: 1
    m_KeepOriginalPositionXZ: 0
    m_HeightFromFeet: 0
    m_Mirror: 0
  m_EditorCurves: []
  m_EulerEditorCurves: []
  m_HasGenericRootTransform: 0
  m_HasMotionFloatCurves: 0
  m_Events: []
