%YAML 1.1
%TAG !u! tag:unity3d.com,2011:
--- !u!74 &7400000
AnimationClip:
  m_ObjectHideFlags: 0
  m_CorrespondingSourceObject: {fileID: 0}
  m_PrefabInstance: {fileID: 0}
  m_PrefabAsset: {fileID: 0}
  m_Name: Run
  serializedVersion: 6
  m_Legacy: 0
  m_Compressed: 0
  m_UseHighQualityCurve: 1
  m_RotationCurves: []
  m_CompressedRotationCurves: []
  m_EulerCurves: []
  m_PositionCurves: []
  m_ScaleCurves: []
  m_FloatCurves: []
  m_PPtrCurves:
  - curve:
    - time: 0
      value: {fileID: 21300000, guid: 4a0af2e3c4c1f4614b6a30a4ff406221, type: 3}
    - time: 0.083333336
      value: {fileID: 21300000, guid: f5c818c2776644e67b0de94adc00d24e, type: 3}
    - time: 0.16666667
      value: {fileID: 21300000, guid: f67bc13ea37fa414486beb35effd5fc2, type: 3}
    - time: 0.25
      value: {fileID: 21300000, guid: 9c9ac806cdaf842d290d1492d3f42a55, type: 3}
    - time: 0.33333334
      value: {fileID: 21300000, guid: 183ade7419b5c428493841f7be1bb653, type: 3}
    - time: 0.41666666
      value: {fileID: 21300000, guid: 322b2f8047e9b411ea4ae5885a4c4b70, type: 3}
    - time: 0.5
      value: {fileID: 21300000, guid: ff551b78370664484b2fce87fdf0c107, type: 3}
    attribute: m_Sprite
    path: Animation/Scale/Sprite
    classID: 212
    script: {fileID: 0}
  m_SampleRate: 12
  m_WrapMode: 0
  m_Bounds:
    m_Center: {x: 0, y: 0, z: 0}
    m_Extent: {x: 0, y: 0, z: 0}
  m_ClipBindingConstant:
    genericBindings:
    - serializedVersion: 2
      path: 1417411149
      attribute: 0
      script: {fileID: 0}
      typeID: 212
      customType: 23
      isPPtrCurve: 1
    pptrCurveMapping:
    - {fileID: 21300000, guid: 4a0af2e3c4c1f4614b6a30a4ff406221, type: 3}
    - {fileID: 21300000, guid: f5c818c2776644e67b0de94adc00d24e, type: 3}
    - {fileID: 21300000, guid: f67bc13ea37fa414486beb35effd5fc2, type: 3}
    - {fileID: 21300000, guid: 9c9ac806cdaf842d290d1492d3f42a55, type: 3}
    - {fileID: 21300000, guid: 183ade7419b5c428493841f7be1bb653, type: 3}
    - {fileID: 21300000, guid: 322b2f8047e9b411ea4ae5885a4c4b70, type: 3}
    - {fileID: 21300000, guid: ff551b78370664484b2fce87fdf0c107, type: 3}
  m_AnimationClipSettings:
    serializedVersion: 2
    m_AdditiveReferencePoseClip: {fileID: 0}
    m_AdditiveReferencePoseTime: 0
    m_StartTime: 0
    m_StopTime: 0.5833333
    m_OrientationOffsetY: 0
    m_Level: 0
    m_CycleOffset: 0
    m_HasAdditiveReferencePose: 0
    m_LoopTime: 1
    m_LoopBlend: 0
    m_LoopBlendOrientation: 0
    m_LoopBlendPositionY: 0
    m_LoopBlendPositionXZ: 0
    m_KeepOriginalOrientation: 0
    m_KeepOriginalPositionY: 1
    m_KeepOriginalPositionXZ: 0
    m_HeightFromFeet: 0
    m_Mirror: 0
  m_EditorCurves: []
  m_EulerEditorCurves: []
  m_HasGenericRootTransform: 0
  m_HasMotionFloatCurves: 0
  m_Events: []
