%YAML 1.1
%TAG !u! tag:unity3d.com,2011:
--- !u!114 &11400000
MonoBehaviour:
  m_ObjectHideFlags: 0
  m_CorrespondingSourceObject: {fileID: 0}
  m_PrefabInstance: {fileID: 0}
  m_PrefabAsset: {fileID: 0}
  m_GameObject: {fileID: 0}
  m_Enabled: 1
  m_EditorHideFlags: 0
  m_Script: {fileID: 11500000, guid: 7712958c7ccdd4223b7e7d4a23be8e87, type: 3}
  m_Name: DefaultPlayerResources
  m_EditorClassIdentifier: 
  Name: Default Player Resources
  resourceList:
  - type: 1
    amount: 1
    max: 50
  - type: 3
    amount: 100
    max: 5000
  - type: 5
    amount: 1
    max: 1
  - type: 4
    amount: 1
    max: 1
  - type: 6
    amount: 1
    max: 1
  - type: 7
    amount: 1
    max: 1
  - type: 11
    amount: 30
    max: 30
  - type: 2
    amount: 10
    max: 100
  - type: 9
    amount: 10
    max: 100
  - type: 10
    amount: 10
    max: 100
