%YAML 1.1
%TAG !u! tag:unity3d.com,2011:
--- !u!114 &11400000
MonoBehaviour:
  m_ObjectHideFlags: 0
  m_CorrespondingSourceObject: {fileID: 0}
  m_PrefabInstance: {fileID: 0}
  m_PrefabAsset: {fileID: 0}
  m_GameObject: {fileID: 0}
  m_Enabled: 1
  m_EditorHideFlags: 0
  m_Script: {fileID: 11500000, guid: 280adce221784212b9734b485d2a1a00, type: 3}
  m_Name: Resources Defaults
  m_EditorClassIdentifier: 
  DefaultPlayerResources: {fileID: 11400000, guid: 8c2397ac661cf432d9b4b2b0cabd2be3,
    type: 2}
  MaxAttackerResourcesScriptableObject: {fileID: 11400000, guid: a8fb8fb48072846eeb8f257d94fb6fab,
    type: 2}
  MaxDefenderResourcesScriptableObject: {fileID: 11400000, guid: 768b791f17d664ff287f7e2dd3ec3f1d,
    type: 2}
